EESchema Schematic File Version 4
LIBS:elektronikaĵoj-cache
EELAYER 26 0
EELAYER END
$Descr A4 11693 8268
encoding utf-8
Sheet 2 5
Title "regilo LAUKOT-1"
Date "2020-10-16"
Rev "1.0"
Comp "Roboto-1"
Comment1 ""
Comment2 "Пеганов"
Comment3 ""
Comment4 ""
$EndDescr
$Comp
L elektronikaĵoj:CCM6N_PWM A?
U 1 1 5F7B5776
P 7500 1150
AR Path="/5F7B5776" Ref="A?"  Part="1" 
AR Path="/5F799016/5F7B5776" Ref="A1"  Part="1" 
F 0 "A1" H 8177 1096 50  0000 L CNN
F 1 "CCM6N_PWM" H 8177 1005 50  0000 L CNN
F 2 "" H 7650 1250 50  0001 C CNN
F 3 "" H 7650 1250 50  0001 C CNN
	1    7500 1150
	1    0    0    -1  
$EndComp
$Comp
L elektronikaĵoj:CCM6N_PWM A?
U 2 1 5F7B577D
P 7500 3750
AR Path="/5F7B577D" Ref="A?"  Part="2" 
AR Path="/5F799016/5F7B577D" Ref="A1"  Part="2" 
F 0 "A1" H 8327 3496 50  0000 L CNN
F 1 "CCM6N_PWM" H 8327 3405 50  0000 L CNN
F 2 "" H 7650 3850 50  0001 C CNN
F 3 "" H 7650 3850 50  0001 C CNN
	2    7500 3750
	1    0    0    -1  
$EndComp
$Comp
L Relay:RT42xxxx K?
U 1 1 5F7B5784
P 6250 4550
AR Path="/5F7B5784" Ref="K?"  Part="1" 
AR Path="/5F799016/5F7B5784" Ref="K2"  Part="1" 
F 0 "K2" V 7017 4550 50  0000 C CNN
F 1 "RT424012" V 6926 4550 50  0000 C CNN
F 2 "Relay_THT:Relay_DPDT_Schrack-RT2-FormC_RM5mm" H 6250 4550 50  0001 C CNN
F 3 "http://www.te.com/commerce/DocumentDelivery/DDEController?Action=showdoc&DocId=Data+Sheet%7FRT2%7F1014%7Fpdf%7FEnglish%7FENG_DS_RT2_1014.pdf%7F6-1393243-3" H 6900 4700 50  0001 C CNN
	1    6250 4550
	0    1    -1   0   
$EndComp
$Comp
L Relay:RTE4xxxx K?
U 1 1 5F7B578B
P 5150 4550
AR Path="/5F7B578B" Ref="K?"  Part="1" 
AR Path="/5F799016/5F7B578B" Ref="K1"  Part="1" 
F 0 "K1" V 5917 4550 50  0000 C CNN
F 1 "RT444012" V 5826 4550 50  0000 C CNN
F 2 "Relay_THT:Relay_DPST_Schrack-RT2-FormA_RM5mm" H 5150 4550 50  0001 C CNN
F 3 "http://www.te.com/commerce/DocumentDelivery/DDEController?Action=showdoc&DocId=Data+Sheet%7FRT2%7F1014%7Fpdf%7FEnglish%7FENG_DS_RT2_1014.pdf%7F6-1393243-3" H 5800 4700 50  0001 C CNN
	1    5150 4550
	0    1    -1   0   
$EndComp
Wire Wire Line
	5450 4450 5700 4450
Wire Wire Line
	5700 4450 5700 4550
Wire Wire Line
	5700 4550 5950 4550
Wire Wire Line
	5450 4050 5700 4050
Wire Wire Line
	5700 4050 5700 4150
Wire Wire Line
	5700 4150 5950 4150
Wire Wire Line
	7500 3950 6750 3950
Wire Wire Line
	6750 3950 6750 3650
Wire Wire Line
	6750 3650 4700 3650
Wire Wire Line
	4700 3650 4700 4150
Wire Wire Line
	7500 3750 6850 3750
Wire Wire Line
	6850 3750 6850 3550
Wire Wire Line
	6850 3550 4600 3550
Wire Wire Line
	4700 4150 4850 4150
Wire Wire Line
	4600 4550 4850 4550
Wire Wire Line
	4600 3550 4600 4550
Wire Wire Line
	7500 4150 6650 4150
Wire Wire Line
	6650 4150 6650 4250
Wire Wire Line
	6650 4250 6650 4450
Wire Wire Line
	6650 4450 6550 4450
Connection ~ 6650 4250
Wire Wire Line
	6650 4250 6550 4250
Wire Wire Line
	6550 4050 6750 4050
Wire Wire Line
	6750 4050 6750 4350
Wire Wire Line
	6750 4350 7500 4350
Wire Wire Line
	6750 4650 6550 4650
Wire Wire Line
	6750 4350 6750 4650
Connection ~ 6750 4350
$Comp
L elektronikaĵoj:CCM6N_PWM A?
U 3 1 5F7B57AE
P 7500 2050
AR Path="/5F7B57AE" Ref="A?"  Part="3" 
AR Path="/5F799016/5F7B57AE" Ref="A1"  Part="3" 
F 0 "A1" H 8127 1996 50  0000 L CNN
F 1 "CCM6N_PWM" H 8127 1905 50  0000 L CNN
F 2 "" H 7650 2150 50  0001 C CNN
F 3 "" H 7650 2150 50  0001 C CNN
	3    7500 2050
	1    0    0    -1  
$EndComp
$Comp
L Motor:Motor_DC_ALT M?
U 1 1 5F7B57B5
P 6550 2100
AR Path="/5F7B57B5" Ref="M?"  Part="1" 
AR Path="/5F799016/5F7B57B5" Ref="M1"  Part="1" 
F 0 "M1" H 6697 2096 50  0000 L CNN
F 1 "XH/550/12V14.5K" H 6697 2005 50  0000 L CNN
F 2 "" H 6550 2010 50  0001 C CNN
F 3 "~" H 6550 2010 50  0001 C CNN
	1    6550 2100
	1    0    0    -1  
$EndComp
Wire Wire Line
	6550 2400 7350 2400
Wire Wire Line
	7350 2400 7350 2250
Wire Wire Line
	7350 2250 7500 2250
Wire Wire Line
	7350 2050 7350 1900
Wire Wire Line
	7350 1900 6550 1900
Wire Wire Line
	7350 2050 7500 2050
$Comp
L elektronikaĵoj:CCM6N_PWM A?
U 4 1 5F7B57C2
P 7500 3050
AR Path="/5F7B57C2" Ref="A?"  Part="4" 
AR Path="/5F799016/5F7B57C2" Ref="A1"  Part="4" 
F 0 "A1" H 8227 2896 50  0000 L CNN
F 1 "CCM6N_PWM" H 8227 2805 50  0000 L CNN
F 2 "" H 7650 3150 50  0001 C CNN
F 3 "" H 7650 3150 50  0001 C CNN
	4    7500 3050
	1    0    0    1   
$EndComp
$Comp
L Device:R_POT RV?
U 1 1 5F7B57C9
P 6550 2850
AR Path="/5F7B57C9" Ref="RV?"  Part="1" 
AR Path="/5F799016/5F7B57C9" Ref="RV1"  Part="1" 
F 0 "RV1" H 6480 2896 50  0000 R CNN
F 1 "R_POT" H 6480 2805 50  0000 R CNN
F 2 "" H 6550 2850 50  0001 C CNN
F 3 "~" H 6550 2850 50  0001 C CNN
	1    6550 2850
	1    0    0    1   
$EndComp
Wire Wire Line
	6550 2700 6550 2650
Wire Wire Line
	6550 2650 7500 2650
Wire Wire Line
	6700 2850 7500 2850
Wire Wire Line
	6550 3000 6550 3050
Wire Wire Line
	6550 3050 7500 3050
Text Label 6700 2350 0    50   ~ 0
BRINGSMART
$Comp
L Isolator:PC817 U?
U 1 1 5F7B57D6
P 4500 5950
AR Path="/5F7B57D6" Ref="U?"  Part="1" 
AR Path="/5F799016/5F7B57D6" Ref="U3"  Part="1" 
F 0 "U3" H 4500 6275 50  0000 C CNN
F 1 "PC817" H 4500 6184 50  0000 C CNN
F 2 "Package_DIP:DIP-4_W7.62mm" H 4300 5750 50  0001 L CIN
F 3 "http://www.soselectronic.cz/a_info/resource/d/pc817.pdf" H 4500 5950 50  0001 L CNN
	1    4500 5950
	1    0    0    -1  
$EndComp
$Comp
L Isolator:PC817 U?
U 1 1 5F7B57DD
P 4500 6600
AR Path="/5F7B57DD" Ref="U?"  Part="1" 
AR Path="/5F799016/5F7B57DD" Ref="U4"  Part="1" 
F 0 "U4" H 4500 6925 50  0000 C CNN
F 1 "PC817" H 4500 6834 50  0000 C CNN
F 2 "Package_DIP:DIP-4_W7.62mm" H 4300 6400 50  0001 L CIN
F 3 "http://www.soselectronic.cz/a_info/resource/d/pc817.pdf" H 4500 6600 50  0001 L CNN
	1    4500 6600
	1    0    0    -1  
$EndComp
Wire Wire Line
	4800 6050 4900 6050
Wire Wire Line
	4800 6700 4900 6700
$Comp
L power:GNDPWR #PWR?
U 1 1 5F7B57E6
P 6000 7050
AR Path="/5F7B57E6" Ref="#PWR?"  Part="1" 
AR Path="/5F799016/5F7B57E6" Ref="#PWR021"  Part="1" 
F 0 "#PWR021" H 6000 6850 50  0001 C CNN
F 1 "GNDPWR" H 6004 6896 50  0000 C CNN
F 2 "" H 6000 7000 50  0001 C CNN
F 3 "" H 6000 7000 50  0001 C CNN
	1    6000 7050
	-1   0    0    -1  
$EndComp
Wire Wire Line
	5550 6300 5550 6250
Wire Wire Line
	5550 4950 5450 4950
Wire Wire Line
	4850 4950 4800 4950
Wire Wire Line
	4600 4950 4600 4850
Wire Wire Line
	5950 4950 5950 5450
Wire Wire Line
	5950 5550 4850 5550
Wire Wire Line
	4600 4950 4600 5550
Connection ~ 4600 4950
$Comp
L power:+12P #PWR?
U 1 1 5F7B57F4
P 4600 4850
AR Path="/5F7B57F4" Ref="#PWR?"  Part="1" 
AR Path="/5F799016/5F7B57F4" Ref="#PWR020"  Part="1" 
F 0 "#PWR020" H 4600 4700 50  0001 C CNN
F 1 "+12P" H 4615 5023 50  0000 C CNN
F 2 "" H 4600 4850 50  0001 C CNN
F 3 "" H 4600 4850 50  0001 C CNN
	1    4600 4850
	1    0    0    -1  
$EndComp
$Comp
L power:+12P #PWR?
U 1 1 5F7B57FA
P 7450 1100
AR Path="/5F7B57FA" Ref="#PWR?"  Part="1" 
AR Path="/5F799016/5F7B57FA" Ref="#PWR022"  Part="1" 
F 0 "#PWR022" H 7450 950 50  0001 C CNN
F 1 "+12P" H 7465 1273 50  0000 C CNN
F 2 "" H 7450 1100 50  0001 C CNN
F 3 "" H 7450 1100 50  0001 C CNN
	1    7450 1100
	1    0    0    -1  
$EndComp
$Comp
L power:GNDPWR #PWR?
U 1 1 5F7B5800
P 7450 1400
AR Path="/5F7B5800" Ref="#PWR?"  Part="1" 
AR Path="/5F799016/5F7B5800" Ref="#PWR023"  Part="1" 
F 0 "#PWR023" H 7450 1200 50  0001 C CNN
F 1 "GNDPWR" H 7454 1246 50  0000 C CNN
F 2 "" H 7450 1350 50  0001 C CNN
F 3 "" H 7450 1350 50  0001 C CNN
	1    7450 1400
	1    0    0    -1  
$EndComp
Wire Wire Line
	7500 1350 7450 1350
Wire Wire Line
	7450 1350 7450 1400
Wire Wire Line
	7450 1100 7450 1150
Wire Wire Line
	7450 1150 7500 1150
$Comp
L Transistor_BJT:2N3904 Q?
U 1 1 5F7B580A
P 5450 6050
AR Path="/5F7B580A" Ref="Q?"  Part="1" 
AR Path="/5F799016/5F7B580A" Ref="Q1"  Part="1" 
F 0 "Q1" H 5641 6096 50  0000 L CNN
F 1 "2N3904" H 5641 6005 50  0000 L CNN
F 2 "Package_TO_SOT_THT:TO-92_Inline" H 5650 5975 50  0001 L CIN
F 3 "https://www.fairchildsemi.com/datasheets/2N/2N3904.pdf" H 5450 6050 50  0001 L CNN
	1    5450 6050
	1    0    0    -1  
$EndComp
$Comp
L Transistor_BJT:2N3904 Q?
U 1 1 5F7B5811
P 5450 6700
AR Path="/5F7B5811" Ref="Q?"  Part="1" 
AR Path="/5F799016/5F7B5811" Ref="Q2"  Part="1" 
F 0 "Q2" H 5641 6746 50  0000 L CNN
F 1 "2N3904" H 5641 6655 50  0000 L CNN
F 2 "Package_TO_SOT_THT:TO-92_Inline" H 5650 6625 50  0001 L CIN
F 3 "https://www.fairchildsemi.com/datasheets/2N/2N3904.pdf" H 5450 6700 50  0001 L CNN
	1    5450 6700
	1    0    0    -1  
$EndComp
Wire Wire Line
	6550 4950 6600 4950
Wire Wire Line
	4800 6500 4850 6500
Wire Wire Line
	5550 6300 6000 6300
Wire Wire Line
	6000 6300 6000 6900
Wire Wire Line
	5550 6900 6000 6900
Connection ~ 6000 6900
Wire Wire Line
	6000 6900 6000 7050
$Comp
L Device:R R?
U 1 1 5F7B581F
P 5050 6700
AR Path="/5F7B581F" Ref="R?"  Part="1" 
AR Path="/5F799016/5F7B581F" Ref="R8"  Part="1" 
F 0 "R8" V 4843 6700 50  0000 C CNN
F 1 "10k" V 4934 6700 50  0000 C CNN
F 2 "" V 4980 6700 50  0001 C CNN
F 3 "~" H 5050 6700 50  0001 C CNN
	1    5050 6700
	0    -1   1    0   
$EndComp
Wire Wire Line
	5200 6700 5250 6700
$Comp
L Device:R R?
U 1 1 5F7B5827
P 5050 6050
AR Path="/5F7B5827" Ref="R?"  Part="1" 
AR Path="/5F799016/5F7B5827" Ref="R7"  Part="1" 
F 0 "R7" V 4843 6050 50  0000 C CNN
F 1 "10k" V 4934 6050 50  0000 C CNN
F 2 "" V 4980 6050 50  0001 C CNN
F 3 "~" H 5050 6050 50  0001 C CNN
	1    5050 6050
	0    -1   1    0   
$EndComp
Wire Wire Line
	5200 6050 5250 6050
Wire Wire Line
	4850 5550 4850 5850
Connection ~ 4850 5550
Wire Wire Line
	4850 5550 4600 5550
Wire Wire Line
	4800 5850 4850 5850
Connection ~ 4850 5850
Wire Wire Line
	4850 5850 4850 6500
Wire Wire Line
	5550 5850 5550 5450
Wire Wire Line
	6600 6500 5550 6500
$Comp
L Diode:1N4148 D?
U 1 1 5F7B5837
P 6250 5450
AR Path="/5F7B5837" Ref="D?"  Part="1" 
AR Path="/5F799016/5F7B5837" Ref="D2"  Part="1" 
F 0 "D2" H 6250 5666 50  0000 C CNN
F 1 "1N4148" H 6250 5575 50  0000 C CNN
F 2 "Diode_THT:D_DO-35_SOD27_P7.62mm_Horizontal" H 6250 5275 50  0001 C CNN
F 3 "http://www.nxp.com/documents/data_sheet/1N4148_1N4448.pdf" H 6250 5450 50  0001 C CNN
	1    6250 5450
	1    0    0    -1  
$EndComp
$Comp
L Diode:1N4148 D?
U 1 1 5F7B583E
P 5150 5450
AR Path="/5F7B583E" Ref="D?"  Part="1" 
AR Path="/5F799016/5F7B583E" Ref="D1"  Part="1" 
F 0 "D1" H 5150 5666 50  0000 C CNN
F 1 "1N4148" H 5150 5575 50  0000 C CNN
F 2 "Diode_THT:D_DO-35_SOD27_P7.62mm_Horizontal" H 5150 5275 50  0001 C CNN
F 3 "http://www.nxp.com/documents/data_sheet/1N4148_1N4448.pdf" H 5150 5450 50  0001 C CNN
	1    5150 5450
	1    0    0    -1  
$EndComp
Wire Wire Line
	5000 5450 4800 5450
Wire Wire Line
	4800 5450 4800 4950
Connection ~ 4800 4950
Wire Wire Line
	4800 4950 4600 4950
Wire Wire Line
	5300 5450 5550 5450
Connection ~ 5550 5450
Wire Wire Line
	5550 5450 5550 4950
Wire Wire Line
	5950 5450 6100 5450
Connection ~ 5950 5450
Wire Wire Line
	5950 5450 5950 5550
Wire Wire Line
	6400 5450 6600 5450
Wire Wire Line
	6600 4950 6600 5450
Connection ~ 6600 5450
Wire Wire Line
	6600 5450 6600 6500
Wire Wire Line
	4200 6050 4100 6050
Wire Wire Line
	4100 6050 4100 6700
Wire Wire Line
	4200 6700 4100 6700
Connection ~ 4100 6700
Wire Wire Line
	4100 6700 4100 7050
Wire Wire Line
	4200 6500 4000 6500
Wire Wire Line
	4200 5850 4000 5850
$Comp
L Device:R R?
U 1 1 5F7B585A
P 3850 6500
AR Path="/5F7B585A" Ref="R?"  Part="1" 
AR Path="/5F799016/5F7B585A" Ref="R5"  Part="1" 
F 0 "R5" V 3643 6500 50  0000 C CNN
F 1 "1k8" V 3734 6500 50  0000 C CNN
F 2 "" V 3780 6500 50  0001 C CNN
F 3 "~" H 3850 6500 50  0001 C CNN
	1    3850 6500
	0    -1   1    0   
$EndComp
$Comp
L Device:R R?
U 1 1 5F7B5861
P 3850 5850
AR Path="/5F7B5861" Ref="R?"  Part="1" 
AR Path="/5F799016/5F7B5861" Ref="R4"  Part="1" 
F 0 "R4" V 3643 5850 50  0000 C CNN
F 1 "1k8" V 3734 5850 50  0000 C CNN
F 2 "" V 3780 5850 50  0001 C CNN
F 3 "~" H 3850 5850 50  0001 C CNN
	1    3850 5850
	0    -1   1    0   
$EndComp
Text Label 3100 5850 0    50   ~ 0
motor_on
Text Label 3100 6500 0    50   ~ 0
motor_reverce
Wire Wire Line
	3050 6500 3700 6500
Wire Wire Line
	3050 5850 3700 5850
$Comp
L power:GNDD #PWR?
U 1 1 5F7B586C
P 4100 7050
AR Path="/5F7B586C" Ref="#PWR?"  Part="1" 
AR Path="/5F799016/5F7B586C" Ref="#PWR019"  Part="1" 
F 0 "#PWR019" H 4100 6800 50  0001 C CNN
F 1 "GNDD" H 4104 6895 50  0000 C CNN
F 2 "" H 4100 7050 50  0001 C CNN
F 3 "" H 4100 7050 50  0001 C CNN
	1    4100 7050
	1    0    0    -1  
$EndComp
Text HLabel 3050 5850 0    50   Input ~ 0
motor_on
Text HLabel 3050 6500 0    50   Input ~ 0
motor_reverce
$Comp
L Sensor_Proximity:CNY70 U1
U 1 1 5F7AE31B
P 3200 2600
F 0 "U1" H 3200 2917 50  0000 C CNN
F 1 "CNY70" H 3200 2826 50  0000 C CNN
F 2 "OptoDevice:Vishay_CNY70" H 3200 2400 50  0001 C CNN
F 3 "https://www.vishay.com/docs/83751/cny70.pdf" H 3200 2700 50  0001 C CNN
	1    3200 2600
	-1   0    0    -1  
$EndComp
$Comp
L Sensor_Proximity:CNY70 U2
U 1 1 5F7AE89B
P 3200 3200
F 0 "U2" H 3200 3517 50  0000 C CNN
F 1 "CNY70" H 3200 3426 50  0000 C CNN
F 2 "OptoDevice:Vishay_CNY70" H 3200 3000 50  0001 C CNN
F 3 "https://www.vishay.com/docs/83751/cny70.pdf" H 3200 3300 50  0001 C CNN
	1    3200 3200
	-1   0    0    -1  
$EndComp
$Comp
L Device:R R2
U 1 1 5F7B6152
P 2850 3600
F 0 "R2" H 2920 3646 50  0000 L CNN
F 1 "1k8" H 2920 3555 50  0000 L CNN
F 2 "" V 2780 3600 50  0001 C CNN
F 3 "~" H 2850 3600 50  0001 C CNN
	1    2850 3600
	1    0    0    -1  
$EndComp
$Comp
L Device:R R1
U 1 1 5F7B621F
P 2500 3600
F 0 "R1" H 2570 3646 50  0000 L CNN
F 1 "1k8" H 2570 3555 50  0000 L CNN
F 2 "" V 2430 3600 50  0001 C CNN
F 3 "~" H 2500 3600 50  0001 C CNN
	1    2500 3600
	1    0    0    -1  
$EndComp
Wire Wire Line
	2850 3450 2850 3300
Wire Wire Line
	2850 3300 2900 3300
Wire Wire Line
	2500 3450 2500 2700
Wire Wire Line
	2500 2700 2900 2700
Wire Wire Line
	2900 3100 2850 3100
Wire Wire Line
	2850 3100 2850 2500
Wire Wire Line
	2900 2500 2850 2500
Connection ~ 2850 2500
Wire Wire Line
	2850 2500 2850 2000
Wire Wire Line
	2850 3750 2850 3850
Wire Wire Line
	2850 3850 2650 3850
Wire Wire Line
	2500 3850 2500 3750
Wire Wire Line
	2650 3850 2650 3900
Connection ~ 2650 3850
Wire Wire Line
	2650 3850 2500 3850
$Comp
L power:GNDD #PWR018
U 1 1 5F7C587C
P 2650 3900
F 0 "#PWR018" H 2650 3650 50  0001 C CNN
F 1 "GNDD" H 2654 3745 50  0000 C CNN
F 2 "" H 2650 3900 50  0001 C CNN
F 3 "" H 2650 3900 50  0001 C CNN
	1    2650 3900
	1    0    0    -1  
$EndComp
$Comp
L Device:R R3
U 1 1 5F7C8DAB
P 3600 2250
F 0 "R3" H 3670 2296 50  0000 L CNN
F 1 "240" H 3670 2205 50  0000 L CNN
F 2 "" V 3530 2250 50  0001 C CNN
F 3 "~" H 3600 2250 50  0001 C CNN
	1    3600 2250
	1    0    0    -1  
$EndComp
$Comp
L Device:R R6
U 1 1 5F7CBC13
P 3900 2250
F 0 "R6" H 3970 2296 50  0000 L CNN
F 1 "240" H 3970 2205 50  0000 L CNN
F 2 "" V 3830 2250 50  0001 C CNN
F 3 "~" H 3900 2250 50  0001 C CNN
	1    3900 2250
	1    0    0    -1  
$EndComp
Wire Wire Line
	3500 2500 3600 2500
Wire Wire Line
	3600 2500 3600 2400
Wire Wire Line
	3900 3100 3900 2400
Wire Wire Line
	3500 3100 3900 3100
Wire Wire Line
	3500 2700 3600 2700
Wire Wire Line
	3600 2700 3600 3300
Wire Wire Line
	3600 3850 2850 3850
Connection ~ 2850 3850
Wire Wire Line
	3500 3300 3600 3300
Connection ~ 3600 3300
Wire Wire Line
	3600 3300 3600 3850
Wire Wire Line
	3600 2100 3600 2000
Wire Wire Line
	3600 2000 3750 2000
Wire Wire Line
	3900 2000 3900 2100
Wire Wire Line
	2850 3300 2100 3300
Connection ~ 2850 3300
Wire Wire Line
	2500 2700 2100 2700
Connection ~ 2500 2700
Text HLabel 2100 2700 0    50   Output ~ 0
motor_up_limit
Text HLabel 2100 3300 0    50   Output ~ 0
motor_down_limit
Wire Wire Line
	2850 2000 2100 2000
Wire Wire Line
	2500 3850 2100 3850
Connection ~ 2500 3850
Text HLabel 2100 3850 0    50   UnSpc ~ 0
GGND
Text HLabel 2100 2000 0    50   UnSpc ~ 0
+3.3VD
Text HLabel 2100 1750 0    50   UnSpc ~ 0
+5VD
Wire Wire Line
	2100 1750 3750 1750
Wire Wire Line
	3750 2000 3750 1750
Connection ~ 3750 2000
Wire Wire Line
	3750 2000 3900 2000
$Comp
L power:+12P #PWR?
U 1 1 5F9236C9
P 9100 1100
AR Path="/5F9236C9" Ref="#PWR?"  Part="1" 
AR Path="/5F799016/5F9236C9" Ref="#PWR024"  Part="1" 
F 0 "#PWR024" H 9100 950 50  0001 C CNN
F 1 "+12P" H 9115 1273 50  0000 C CNN
F 2 "" H 9100 1100 50  0001 C CNN
F 3 "" H 9100 1100 50  0001 C CNN
	1    9100 1100
	1    0    0    -1  
$EndComp
$Comp
L power:GNDPWR #PWR?
U 1 1 5F9236CF
P 9100 1400
AR Path="/5F9236CF" Ref="#PWR?"  Part="1" 
AR Path="/5F799016/5F9236CF" Ref="#PWR025"  Part="1" 
F 0 "#PWR025" H 9100 1200 50  0001 C CNN
F 1 "GNDPWR" H 9104 1246 50  0000 C CNN
F 2 "" H 9100 1350 50  0001 C CNN
F 3 "" H 9100 1350 50  0001 C CNN
	1    9100 1400
	1    0    0    -1  
$EndComp
Wire Wire Line
	9100 1350 9100 1400
Wire Wire Line
	9100 1100 9100 1150
Wire Wire Line
	9100 1150 9500 1150
Wire Wire Line
	9100 1350 9500 1350
Text HLabel 9500 1150 2    50   UnSpc ~ 0
+12VPWR
Text HLabel 9500 1350 2    50   UnSpc ~ 0
GNDPWR
$EndSCHEMATC
